Reproducible document
…
#Discussion

bla bla

2 + 2

[1] 4

library(tidyverse)
library(NHANES)
nhanes_small <- read_csv(here::here("data/nhanes_small.csv"))

nhanes_small

# A tibble: 616 × 12
     age sex      bmi diabetes phys_active bp_sys_ave bp_dia_ave education     
   <dbl> <chr>  <dbl> <chr>    <chr>            <dbl>      <dbl> <chr>         
 1   528 male    31.4 Yes      No                 144         88 9 - 11th Grade
 2   528 male    31.4 Yes      No                 144         88 9 - 11th Grade
 3   768 female  27.2 Yes      Yes                130         65 8th Grade     
 4   708 female  25.8 Yes      No                 150          0 8th Grade     
 5   708 female  25.8 Yes      No                 150          0 8th Grade     
 6   672 male    25.0 Yes      No                  86         54 8th Grade     
 7   936 female  22.6 Yes      No                 133         61 8th Grade     
 8   960 male    34.0 Yes      No                 125         56 9 - 11th Grade
 9   792 female  28.6 Yes      No                 136         70 9 - 11th Grade
10   792 female  28.6 Yes      No                 136         70 9 - 11th Grade
# ℹ 606 more rows
# ℹ 4 more variables: logged_bmi <dbl>, old <chr>,
#   mean_arterial_pressure <dbl>, young_child <chr>
…
